<?xml version="1.0" encoding="UTF-8" standalone="no"?>
<svg width="34px" height="28px" viewBox="0 0 34 28" version="1.1" xmlns="http://www.w3.org/2000/svg" xmlns:xlink="http://www.w3.org/1999/xlink">
    <!-- Generator: Sketch 48.2 (47327) - http://www.bohemiancoding.com/sketch -->
    <title>icon-wallet</title>
    <desc>Created with Sketch.</desc>
    <defs><linearGradient xy="100%" id="gradient"><stop stop-color="#fff" offset="0%"></stop><stop stop-color="#fff" offset="100%"></stop></linearGradient></defs>
    <g id="Standard-Bank---Icon-Setup" stroke="none" stroke-width="1" fill="none" fill-rule="evenodd" transform="translate(-500.000000, -3185.000000)">
        <g id="Icons---Banking" transform="translate(69.000000, 3093.000000)" fill="#FFFFFF">
            <g id="icon-wallet" transform="translate(431.000000, 89.000000)">
                <path d="M32.5833333,10.1288 L32.5833333,7.2 C32.5833333,4.8844 30.6765,3 28.3333333,3 L4.25,3 C1.90683333,3 0,4.8844 0,7.2 L0,26.8 C0,29.1156 1.90683333,31 4.25,31 L28.3333333,31 C30.6765,31 32.5833333,29.1156 32.5833333,26.8 L32.5833333,23.8712 C33.405,23.5814 34,22.8114 34,21.9 L34,12.1 C34,11.1886 33.405,10.4186 32.5833333,10.1288 Z M29.75,26.8 C29.75,27.5714 29.1153333,28.2 28.3333333,28.2 L4.25,28.2 C3.46658333,28.2 2.83333333,27.5714 2.83333333,26.8 L2.83333333,7.2 C2.83333333,6.4286 3.46658333,5.8 4.25,5.8 L28.3333333,5.8 C29.1153333,5.8 29.75,6.4286 29.75,7.2 L29.75,10 L22.6666667,10 C18.7609167,10 15.5833333,13.1402 15.5833333,17 C15.5833333,20.8598 18.7609167,24 22.6666667,24 L29.75,24 L29.75,26.8 Z M31.1666667,21.2 L22.6666667,21.2 C20.3235,21.2 18.4166667,19.3156 18.4166667,17 C18.4166667,14.6844 20.3235,12.8 22.6666667,12.8 L31.1666667,12.8 L31.1666667,21.2 Z M21.25,17 C21.25,17.7728 21.88325,18.4 22.6666667,18.4 C23.4500833,18.4 24.0833333,17.7728 24.0833333,17 C24.0833333,16.2272 23.4500833,15.6 22.6666667,15.6 C21.88325,15.6 21.25,16.2272 21.25,17 Z"></path>
            </g>
        </g>
    </g>
</svg>